<?xml version="1.0" encoding="utf-8"?>
<!-- Generator: Adobe Illustrator 15.1.0, SVG Export Plug-In . SVG Version: 6.00 Build 0)  -->
<!DOCTYPE svg PUBLIC "-//W3C//DTD SVG 1.1//EN" "http://www.w3.org/Graphics/SVG/1.1/DTD/svg11.dtd">
<svg version="1.1" id="expand_2_" xmlns="http://www.w3.org/2000/svg" xmlns:xlink="http://www.w3.org/1999/xlink" x="0px" y="0px"
	 width="24px" height="24px" viewBox="0 0 24 24" enable-background="new 0 0 24 24" xml:space="preserve">
<defs>
	<path id="SVGID_1_" enable-background="new    " d="M9.853,4.318L4.328,4.351L4.33,9.911l1.838-1.862l2.452,2.483l1.892-1.916
		L8.06,6.134L9.853,4.318z M8.62,12.485l-2.452,2.482L4.33,13.106l-0.002,5.605l5.525-0.013L8.06,16.884l2.452-2.482L8.62,12.485z
		 M14.188,10.532l2.451-2.483l1.839,1.862l0.002-5.561l-5.525-0.033l1.793,1.816l-2.451,2.482L14.188,10.532z M16.639,14.968
		l-2.451-2.482l-1.892,1.916l2.451,2.482l-1.793,1.815l5.525,0.013l-0.002-5.605L16.639,14.968z"/>
</defs>
<clipPath id="SVGID_2_">
	<use xlink:href="#SVGID_1_"  overflow="visible"/>
</clipPath>
<g transform="matrix(1 0 0 1 0 0)" clip-path="url(#SVGID_2_)">
	
		<image overflow="visible" width="100" height="100" id="expand_xA0_Image" xlink:href="data:image/png;base64,iVBORw0KGgoAAAANSUhEUgAAAGQAAABkCAIAAAD/gAIDAAAACXBIWXMAAC4jAAAuIwF4pT92AAAA
GXRFWHRTb2Z0d2FyZQBBZG9iZSBJbWFnZVJlYWR5ccllPAAAAKJJREFUeNrs0DEBAAAIAyC12/pX
soKfD0SgkxQ3o0CWLFmyZMlSIEuWLFmyZCmQJUuWLFmyFMiSJUuWLFkKZMmSJUuWLAWyZMmSJUuW
AlmyZMmSJUuBLFmyZMmSpUCWLFmyZMlSIEuWLFmyZCmQJUuWLFmyFMiSJUuWLFkKZMmSJUuWLAWy
ZMmSJUuWAlmyZMmSJUuBLFmyZMmSpUCWrG8rwAB8tQGXV3vkmQAAAABJRU5ErkJggg==" transform="matrix(0.24 0 0 0.24 0 0)">
	</image>
</g>
</svg>
